  PV         VG          Fmt  Attr PSize    PFree  
  /dev/sda2  vg00        lvm2 a--   <59.00g      0 
  /dev/sdc1  oracleVG    lvm2 a--  <248.00g <78.00g
  /dev/sdd1  oraexportVG lvm2 a--  <300.00g  96.00m
  /dev/sde1  oradumpVG   lvm2 a--  <300.00g  96.00m
