Diff_days,Nombre,Email
250,a463857,ATOS UNIX ADMIN - ArumugamRavi - ravi.arumugam@atos.net
569,a463395,ATOS UNIX ADMIN - ShanmugamSudhakar - sudhakar.shanmugam@atos.net
569,a607159,ATOS UNIX ADMIN - BatistaOscar - oscar.batista@atos.net
18619,a607153,ATOS UNIX ADMIN - PiotrowskiRicardo - ricardo.piotrowskimanes@atos.net
18619,a606894,ATOS UNIX ADMIN - RoncagliaEmiliano - emiliano.roncaglia@atos.net
1526,a466373,ATOS UNIX ADMIN - ValikhovskyVladislav - vladislav.valikhovsky@atos.net
18619,a461869,ATOS UNIX ADMIN - EspecheCarlos - carlos.espeche@atos.net
570,a470004,ATOS UNIX ADMIN - PinedaAlberto - alberto.pineda@atos.net
201,a470225,ATOS UNIX ADMIN - BarrientosJorge - jorge.ortizbarrientos@atos.net
237,a676730,"A676730,EdigaBurra Manjunath, e-burra.manjunath@atos.net, TASK001773255"
414,a462542,"A462542,prasadvenkata.pothuraju@atos.net,TASK001773255"
544,a662036,Atos AIX/Linux Admin - Jose Hansen-   jose-luis.hansen@atos.net (TASK002361001)
170,jpmarie,
